Timestamp,Status Code,URL,Error Message,User,User Host Address,User Host Name,Request Type,URL Referrer
10/05/2014 16:32:12,500,http://www.newportmathclub.org/kpmt/archive.aspx/trackback/,A potentially dangerous Request.Form value was detected from the client (excerpt="<a href="http://www2...").,,27.159.20.161,27.159.20.161,POST,http://www.newportmathclub.org/kpmt/archive.aspx
10/05/2014 16:44:47,404,http://newportmathclub.org/renewal.aspx,The file '/renewal.aspx' does not exist.,,54.86.213.38,54.86.213.38,GET,
10/06/2014 06:57:32,404,http://www.newportmathclub.org/editors/fckeditor/editor/filemanager/connectors/aspx/connector.aspx,The file '/editors/fckeditor/editor/filemanager/connectors/aspx/connector.aspx' does not exist.,,146.71.111.251,146.71.111.251,GET,
10/07/2014 07:12:46,404,http://www.newportmathclub.org/renewal.aspx,The file '/renewal.aspx' does not exist.,,157.55.39.54,157.55.39.54,GET,
10/07/2014 14:42:22,500,http://www.newportmathclub.org/kpmt/default.aspx,Request timed out.,,157.55.39.53,157.55.39.53,GET,
10/08/2014 04:27:13,404,http://www.newportmathclub.org/kpmt/index.aspx,The file '/kpmt/index.aspx' does not exist.,,208.115.113.83,208.115.113.83,GET,
10/08/2014 19:13:24,500,http://newportmathclub.org/officers/members.aspx,Exception of type 'System.Web.HttpUnhandledException' was thrown.,Phillip Wang,97.113.62.171,97.113.62.171,POST,http://newportmathclub.org/officers/members.aspx
10/08/2014 19:27:34,404,http://www.newportmathclub.org/renewal.aspx,The file '/renewal.aspx' does not exist.,,157.55.39.54,157.55.39.54,GET,
10/09/2014 15:40:44,500,http://newportmathclub.org/officers/members.aspx,Exception of type 'System.Web.HttpUnhandledException' was thrown.,Phillip Wang,23.29.97.149,23.29.97.149,POST,http://newportmathclub.org/officers/members.aspx
10/09/2014 15:40:53,500,http://newportmathclub.org/officers/members.aspx,Exception of type 'System.Web.HttpUnhandledException' was thrown.,Phillip Wang,23.29.97.149,23.29.97.149,POST,http://newportmathclub.org/officers/members.aspx
10/09/2014 15:41:09,500,http://newportmathclub.org/officers/members.aspx,Exception of type 'System.Web.HttpUnhandledException' was thrown.,Phillip Wang,23.29.97.149,23.29.97.149,POST,http://newportmathclub.org/officers/members.aspx
10/09/2014 15:41:45,500,http://newportmathclub.org/officers/members.aspx,Exception of type 'System.Web.HttpUnhandledException' was thrown.,Phillip Wang,23.29.97.149,23.29.97.149,POST,http://newportmathclub.org/officers/members.aspx
10/09/2014 15:42:20,500,http://newportmathclub.org/officers/members.aspx,Exception of type 'System.Web.HttpUnhandledException' was thrown.,Phillip Wang,23.29.97.149,23.29.97.149,POST,http://newportmathclub.org/officers/members.aspx
10/09/2014 15:42:50,500,http://newportmathclub.org/officers/members.aspx,Exception of type 'System.Web.HttpUnhandledException' was thrown.,Phillip Wang,23.29.97.149,23.29.97.149,POST,http://newportmathclub.org/officers/members.aspx
10/09/2014 15:49:13,500,http://newportmathclub.org/officers/members.aspx,Exception of type 'System.Web.HttpUnhandledException' was thrown.,Phillip Wang,23.29.97.149,23.29.97.149,POST,http://newportmathclub.org/officers/members.aspx
10/14/2014 06:51:00,404,http://www.newportmathclub.org/renewal.aspx,The file '/renewal.aspx' does not exist.,,157.55.39.213,157.55.39.213,GET,
10/16/2014 09:05:25,404,http://newportmathclub.org/renewal.aspx,The file '/renewal.aspx' does not exist.,,157.55.39.213,157.55.39.213,GET,
10/16/2014 09:05:28,404,http://newportmathclub.org/kpmt/index.aspx,The file '/kpmt/index.aspx' does not exist.,,157.55.39.213,157.55.39.213,GET,
10/17/2014 14:48:57,500,http://newportmathclub.org/login.aspx?ReturnUrl=/,Request timed out.,,162.78.70.125,162.78.70.125,POST,http://newportmathclub.org/login.aspx?ReturnUrl=/
10/17/2014 15:37:07,500,http://newportmathclub.org/officers/members.aspx,Exception of type 'System.Web.HttpUnhandledException' was thrown.,Steven Kim,162.78.70.125,162.78.70.125,POST,http://newportmathclub.org/officers/members.aspx
10/17/2014 16:08:22,500,http://newportmathclub.org/officers/members.aspx,Exception of type 'System.Web.HttpUnhandledException' was thrown.,Phillip Wang,162.78.70.125,162.78.70.125,POST,http://newportmathclub.org/officers/members.aspx
10/17/2014 16:12:34,404,http://www.newportmathclub.org/kpmt/pdf/12-13/contact.aspx,The file '/kpmt/pdf/12-13/contact.aspx' does not exist.,,208.115.113.83,208.115.113.83,GET,
10/17/2014 16:12:58,500,http://newportmathclub.org/officers/members.aspx,Exception of type 'System.Web.HttpUnhandledException' was thrown.,Phillip Wang,162.78.70.125,162.78.70.125,POST,http://newportmathclub.org/officers/members.aspx
10/17/2014 16:13:29,500,http://newportmathclub.org/officers/members.aspx,Exception of type 'System.Web.HttpUnhandledException' was thrown.,Phillip Wang,162.78.70.125,162.78.70.125,POST,http://newportmathclub.org/officers/members.aspx
10/17/2014 16:14:33,500,http://newportmathclub.org/officers/members.aspx,Exception of type 'System.Web.HttpUnhandledException' was thrown.,Phillip Wang,162.78.70.125,162.78.70.125,POST,http://newportmathclub.org/officers/members.aspx
10/17/2014 16:15:40,500,http://newportmathclub.org/officers/members.aspx,Exception of type 'System.Web.HttpUnhandledException' was thrown.,Phillip Wang,162.78.70.125,162.78.70.125,POST,http://newportmathclub.org/officers/members.aspx
10/17/2014 16:16:55,500,http://newportmathclub.org/officers/members.aspx,Exception of type 'System.Web.HttpUnhandledException' was thrown.,Phillip Wang,162.78.70.125,162.78.70.125,POST,http://newportmathclub.org/officers/members.aspx
10/17/2014 16:18:24,500,http://newportmathclub.org/officers/members.aspx,Exception of type 'System.Web.HttpUnhandledException' was thrown.,Phillip Wang,162.78.70.125,162.78.70.125,POST,http://newportmathclub.org/officers/members.aspx
10/17/2014 16:20:30,500,http://newportmathclub.org/officers/members.aspx,Exception of type 'System.Web.HttpUnhandledException' was thrown.,Phillip Wang,162.78.70.125,162.78.70.125,POST,http://newportmathclub.org/officers/members.aspx
10/17/2014 16:20:50,500,http://newportmathclub.org/officers/members.aspx,Exception of type 'System.Web.HttpUnhandledException' was thrown.,Phillip Wang,162.78.70.125,162.78.70.125,POST,http://newportmathclub.org/officers/members.aspx
10/17/2014 16:21:22,500,http://newportmathclub.org/officers/members.aspx,Exception of type 'System.Web.HttpUnhandledException' was thrown.,Phillip Wang,162.78.70.125,162.78.70.125,POST,http://newportmathclub.org/officers/members.aspx
10/17/2014 16:27:15,500,http://newportmathclub.org/officers/members.aspx,Exception of type 'System.Web.HttpUnhandledException' was thrown.,Phillip Wang,162.78.70.125,162.78.70.125,POST,http://newportmathclub.org/officers/members.aspx
10/17/2014 16:28:05,500,http://newportmathclub.org/officers/members.aspx,Exception of type 'System.Web.HttpUnhandledException' was thrown.,Phillip Wang,162.78.70.125,162.78.70.125,POST,http://newportmathclub.org/officers/members.aspx
10/17/2014 16:28:13,500,http://newportmathclub.org/officers/members.aspx,Exception of type 'System.Web.HttpUnhandledException' was thrown.,Phillip Wang,162.78.70.125,162.78.70.125,POST,http://newportmathclub.org/officers/members.aspx
10/17/2014 20:13:52,404,http://www.newportmathclub.org/renewal.aspx,The file '/renewal.aspx' does not exist.,,180.76.6.137,180.76.6.137,GET,
10/18/2014 17:07:37,404,http://www.newportmathclub.org/renewal.aspx,The file '/renewal.aspx' does not exist.,,202.46.48.33,202.46.48.33,GET,
10/20/2014 20:43:35,500,http://newportmathclub.org/officers/members.aspx,Exception of type 'System.Web.HttpUnhandledException' was thrown.,Phillip Wang,97.113.62.171,97.113.62.171,POST,http://newportmathclub.org/officers/members.aspx
10/21/2014 16:48:40,404,http://newportmathclub.org/renewal.aspx,The file '/renewal.aspx' does not exist.,,157.55.39.213,157.55.39.213,GET,
10/21/2014 17:11:44,500,http://newportmathclub.org/kpmt/archive.aspx,The state information is invalid for this page and might be corrupted.,,180.241.36.233,180.241.36.233,POST,
10/21/2014 17:11:49,500,http://newportmathclub.org/kpmt/archive.aspx,Validation of viewstate MAC failed. If this application is hosted by a Web Farm or cluster, ensure that <machineKey> configuration specifies the same validationKey and validation algorithm. AutoGenerate cannot be used in a cluster.,,180.241.36.233,180.241.36.233,POST,
10/21/2014 17:11:53,500,http://newportmathclub.org/kpmt/archive.aspx,Validation of viewstate MAC failed. If this application is hosted by a Web Farm or cluster, ensure that <machineKey> configuration specifies the same validationKey and validation algorithm. AutoGenerate cannot be used in a cluster.,,180.241.36.233,180.241.36.233,POST,
10/22/2014 18:43:09,500,http://www.newportmathclub.org/members/mypoints.aspx,Exception of type 'System.Web.HttpUnhandledException' was thrown.,Sarah Wang,50.135.204.4,50.135.204.4,GET,http://www.newportmathclub.org/pages/meetings.aspx
10/23/2014 16:12:23,404,http://www.newportmathclub.org/kpmt/index.aspx,The file '/kpmt/index.aspx' does not exist.,,208.115.113.83,208.115.113.83,GET,
10/24/2014 15:17:52,500,http://newportmathclub.org/officers/attendance.aspx,Request timed out.,Steven Kim,162.78.70.118,162.78.70.118,GET,http://newportmathclub.org/officers/meetings.aspx
10/25/2014 06:33:53,404,http://www.newportmathclub.org/kpmt/index.aspx,The file '/kpmt/index.aspx' does not exist.,,207.46.13.75,207.46.13.75,GET,
10/25/2014 17:14:33,404,http://www.newportmathclub.org/renewal.aspx,The file '/renewal.aspx' does not exist.,,157.55.39.209,157.55.39.209,GET,
10/26/2014 12:40:11,500,http://www.newportmathclub.org/pages/meetings.aspx,Request timed out.,,123.125.71.55,123.125.71.55,GET,
10/28/2014 08:15:09,404,http://www.newportmathclub.org/renewal.aspx,The file '/renewal.aspx' does not exist.,,207.46.13.140,207.46.13.140,GET,
10/28/2014 08:26:36,404,http://www.newportmathclub.org/contests/kpmt/index.aspx,The file '/contests/kpmt/index.aspx' does not exist.,,157.55.39.179,157.55.39.179,GET,
10/28/2014 13:24:25,404,http://newportmathclub.org/contests/kpmt/index.aspx,The file '/contests/kpmt/index.aspx' does not exist.,,157.55.39.178,157.55.39.178,GET,
10/28/2014 13:27:48,404,http://newportmathclub.org/kpmt/index.aspx,The file '/kpmt/index.aspx' does not exist.,,207.46.13.140,207.46.13.140,GET,
