Timestamp,Status Code,URL,Error Message,User,User Host Address,User Host Name,Request Type,URL Referrer
03/04/2015 07:09:03,404,http://www.newportmathclub.org/renewal.aspx,The file '/renewal.aspx' does not exist.,,157.55.39.8,157.55.39.8,GET,
03/05/2015 18:14:25,500,http://www.newportmathclub.org/pages/practice.aspx,Validation of viewstate MAC failed. If this application is hosted by a Web Farm or cluster, ensure that <machineKey> configuration specifies the same validationKey and validation algorithm. AutoGenerate cannot be used in a cluster.

See http://go.microsoft.com/fwlink/?LinkID=314055 for more information.,,187.56.250.4,187.56.250.4,POST,
03/06/2015 15:18:11,500,http://newportmathclub.org/officers/members.aspx,Exception of type 'System.Web.HttpUnhandledException' was thrown.,Steven Kim,162.78.70.164,162.78.70.164,POST,http://newportmathclub.org/officers/members.aspx
03/07/2015 05:27:13,404,http://www.newportmathclub.org/kptm/archive.aspx,The file '/kptm/archive.aspx' does not exist.,,208.87.234.180,208.87.234.180,GET,
03/07/2015 05:27:24,404,http://www.newportmathclub.org/kptm/archive.aspx,The file '/kptm/archive.aspx' does not exist.,,66.249.92.126,66.249.92.126,GET,
03/07/2015 15:55:08,404,http://www.newportmathclub.org/kpmt/pages/contests.aspx,The file '/kpmt/pages/contests.aspx' does not exist.,,157.55.39.238,157.55.39.238,GET,
03/07/2015 15:55:15,404,http://www.newportmathclub.org/kpmt/pages/sponsors.aspx,The file '/kpmt/pages/sponsors.aspx' does not exist.,,157.55.39.217,157.55.39.217,GET,
03/07/2015 16:00:37,404,http://www.newportmathclub.org/kpmt/pages/officers.aspx,The file '/kpmt/pages/officers.aspx' does not exist.,,157.55.39.8,157.55.39.8,GET,
03/07/2015 18:54:42,500,http://newportmathclub.org/login.aspx?ReturnUrl=/default.aspx,Exception of type 'System.Web.HttpUnhandledException' was thrown.,,174.21.36.3,174.21.36.3,POST,http://newportmathclub.org/login.aspx?ReturnUrl=/default.aspx
03/07/2015 19:25:55,500,http://newportmathclub.org/login.aspx?ReturnUrl=/,Exception of type 'System.Web.HttpUnhandledException' was thrown.,,174.21.36.3,174.21.36.3,POST,http://newportmathclub.org/login.aspx?ReturnUrl=/
03/07/2015 19:26:24,500,http://newportmathclub.org/login.aspx?ReturnUrl=/,Exception of type 'System.Web.HttpUnhandledException' was thrown.,,174.21.36.3,174.21.36.3,POST,http://newportmathclub.org/login.aspx?ReturnUrl=/
03/07/2015 19:28:12,500,http://newportmathclub.org/login.aspx?ReturnUrl=/members/mypoints.aspx,Exception of type 'System.Web.HttpUnhandledException' was thrown.,,174.21.36.3,174.21.36.3,POST,http://newportmathclub.org/login.aspx?ReturnUrl=/members/mypoints.aspx
03/07/2015 19:28:25,500,http://newportmathclub.org/login.aspx?ReturnUrl=/members/mypoints.aspx,Exception of type 'System.Web.HttpUnhandledException' was thrown.,,174.21.36.3,174.21.36.3,POST,http://newportmathclub.org/login.aspx?ReturnUrl=/members/mypoints.aspx
03/07/2015 19:33:55,500,http://newportmathclub.org/login.aspx?ReturnUrl=/,Exception,Exception of type 'System.Web.HttpUnhandledException' was thrown.,,174.21.36.3,174.21.36.3,POST,http://newportmathclub.org/login.aspx?ReturnUrl=/,Exception
03/09/2015 20:48:01,500,http://newportmathclub.org/login.aspx?ReturnUrl=/officers/members.aspx,Exception of type 'System.Web.HttpUnhandledException' was thrown.,,174.21.36.3,174.21.36.3,POST,http://newportmathclub.org/login.aspx?ReturnUrl=/officers/members.aspx
03/09/2015 21:23:05,500,http://newportmathclub.org/login.aspx?ReturnUrl=/,Exception of type 'System.Web.HttpUnhandledException' was thrown.,,174.21.36.3,174.21.36.3,POST,http://newportmathclub.org/login.aspx?ReturnUrl=/
03/09/2015 21:23:37,500,http://newportmathclub.org/login.aspx?ReturnUrl=/,Exception of type 'System.Web.HttpUnhandledException' was thrown.,,174.21.36.3,174.21.36.3,POST,http://newportmathclub.org/login.aspx?ReturnUrl=/
03/09/2015 21:33:11,500,http://newportmathclub.org/login.aspx?ReturnUrl=/,Exception of type 'System.Web.HttpUnhandledException' was thrown.,,174.21.36.3,174.21.36.3,POST,http://newportmathclub.org/login.aspx?ReturnUrl=/
03/09/2015 21:33:16,500,http://newportmathclub.org/login.aspx?ReturnUrl=/,Exception of type 'System.Web.HttpUnhandledException' was thrown.,,174.21.36.3,174.21.36.3,POST,http://newportmathclub.org/login.aspx?ReturnUrl=/
03/09/2015 21:33:20,500,http://newportmathclub.org/login.aspx?ReturnUrl=/,Exception of type 'System.Web.HttpUnhandledException' was thrown.,,174.21.36.3,174.21.36.3,POST,http://newportmathclub.org/login.aspx?ReturnUrl=/
03/10/2015 17:36:12,500,http://www.newportmathclub.org/login.aspx?ReturnUrl=/pages/meetings.aspx,Exception of type 'System.Web.HttpUnhandledException' was thrown.,,24.19.161.107,24.19.161.107,POST,http://www.newportmathclub.org/login.aspx?ReturnUrl=/pages/meetings.aspx
03/10/2015 17:36:38,500,http://www.newportmathclub.org/login.aspx?ReturnUrl=/pages/meetings.aspx,Exception of type 'System.Web.HttpUnhandledException' was thrown.,,24.19.161.107,24.19.161.107,POST,http://www.newportmathclub.org/login.aspx?ReturnUrl=/pages/meetings.aspx
03/10/2015 17:36:44,500,http://www.newportmathclub.org/login.aspx?ReturnUrl=/pages/meetings.aspx,Exception of type 'System.Web.HttpUnhandledException' was thrown.,,24.19.161.107,24.19.161.107,POST,http://www.newportmathclub.org/login.aspx?ReturnUrl=/pages/meetings.aspx
03/11/2015 17:55:22,500,http://newportmathclub.org/login.aspx?ReturnUrl=/,Exception of type 'System.Web.HttpUnhandledException' was thrown.,,174.21.36.3,174.21.36.3,POST,http://newportmathclub.org/login.aspx?ReturnUrl=/
03/11/2015 18:22:21,500,http://newportmathclub.org/login.aspx?ReturnUrl=/,Exception of type 'System.Web.HttpUnhandledException' was thrown.,,174.21.36.3,174.21.36.3,POST,http://newportmathclub.org/login.aspx?ReturnUrl=/
03/14/2015 19:32:43,404,http://www.newportmathclub.org/kpmt/pdf/12-13/contact.aspx,The file '/kpmt/pdf/12-13/contact.aspx' does not exist.,,217.69.133.219,217.69.133.219,GET,
03/15/2015 18:45:33,404,http://www.newportmathclub.org/kpmt/pages/about.aspx,The file '/kpmt/pages/about.aspx' does not exist.,,207.46.13.96,207.46.13.96,GET,
03/18/2015 23:17:18,500,http://newportmathclub.org/officers/reports/yearlypoints.aspx,The client disconnected.,Steven Kim,24.19.161.107,24.19.161.107,POST,http://newportmathclub.org/officers/reports/yearlypoints.aspx
03/20/2015 18:50:39,500,http://newportmathclub.org/login.aspx?ReturnUrl=/admin/users.aspx,Exception of type 'System.Web.HttpUnhandledException' was thrown.,,174.21.36.3,174.21.36.3,POST,http://newportmathclub.org/login.aspx?ReturnUrl=/admin/users.aspx
03/26/2015 07:51:31,404,http://www.newportmathclub.org/renewal.aspx,The file '/renewal.aspx' does not exist.,,157.55.39.75,157.55.39.75,GET,
03/26/2015 07:51:35,404,http://www.newportmathclub.org/contests/kpmt/index.aspx,The file '/contests/kpmt/index.aspx' does not exist.,,157.55.39.238,157.55.39.238,GET,
03/27/2015 00:13:31,404,http://newportmathclub.org/kpmt/index.aspx,The file '/kpmt/index.aspx' does not exist.,,157.55.39.75,157.55.39.75,GET,
03/31/2015 10:01:33,404,http://newportmathclub.org/kpmt/index.aspx,The file '/kpmt/index.aspx' does not exist.,,157.55.39.75,157.55.39.75,GET,
03/31/2015 17:31:51,404,http://www.newportmathclub.org/contests/kpmt/index.aspx,The file '/contests/kpmt/index.aspx' does not exist.,,157.55.39.238,157.55.39.238,GET,
03/31/2015 17:31:51,404,http://www.newportmathclub.org/renewal.aspx,The file '/renewal.aspx' does not exist.,,157.55.39.75,157.55.39.75,GET,
